%!PS-Adobe-3.0
%%Creator: PCBNEW
%%CreationDate: Mon Dec 14 14:43:59 2020
%%Title: /home/ubuntu/hylkema/Projects/rpiCarGps/PCB/Gerber/carGpsHat-PTH-drl_map.ps
%%Pages: 1
%%PageOrder: Ascend
%%BoundingBox: 0 0 596 842
%%DocumentMedia: A4 595 842 0 () ()
%%Orientation: Landscape
%%EndComments
%%BeginProlog
/line { newpath moveto lineto stroke } bind def
/cir0 { newpath 0 360 arc stroke } bind def
/cir1 { newpath 0 360 arc gsave fill grestore stroke } bind def
/cir2 { newpath 0 360 arc gsave fill grestore stroke } bind def
/arc0 { newpath arc stroke } bind def
/arc1 { newpath 4 index 4 index moveto arc closepath gsave fill
    grestore stroke } bind def
/arc2 { newpath 4 index 4 index moveto arc closepath gsave fill
    grestore stroke } bind def
/poly0 { stroke } bind def
/poly1 { closepath gsave fill grestore stroke } bind def
/poly2 { closepath gsave fill grestore stroke } bind def
/rect0 { rectstroke } bind def
/rect1 { rectfill } bind def
/rect2 { rectfill } bind def
/linemode0 { 0 setlinecap 0 setlinejoin 0 setlinewidth } bind def
/linemode1 { 1 setlinecap 1 setlinejoin } bind def
/dashedline { [200] 100 setdash } bind def
/solidline { [] 0 setdash } bind def
/phantomshow { moveto
    /KicadFont findfont 0.000001 scalefont setfont
    show } bind def
/textshow { gsave
    findfont exch scalefont setfont concat 1 scale 0 0 moveto show
    } bind def
/reencodefont {
  findfont dup length dict begin
  { 1 index /FID ne
    { def }
    { pop pop } ifelse
  } forall
  /Encoding ISOLatin1Encoding def
  currentdict
  end } bind def
/KicadFont /Helvetica reencodefont definefont pop
/KicadFont-Bold /Helvetica-Bold reencodefont definefont pop
/KicadFont-Oblique /Helvetica-Oblique reencodefont definefont pop
/KicadFont-BoldOblique /Helvetica-BoldOblique reencodefont definefont pop
%%EndProlog
%%Page: 1 1
%%BeginPageSetup
gsave
0.0072 0.0072 scale
linemode1
82680 0 translate 90 rotate
150 setlinewidth
%%EndPageSetup
78.7394 setlinewidth
newpath
207993 -31651.6 moveto
208937 -32596.4 lineto
stroke
newpath
208937 -31651.6 moveto
207993 -32596.4 lineto
stroke
newpath
207993 -40651.6 moveto
208937 -41596.4 lineto
stroke
newpath
208937 -40651.6 moveto
207993 -41596.4 lineto
stroke
255993 -47124 590.551 cir0
255993 -50124 590.551 cir0
255993 -53124 590.551 cir0
255993 -56124 590.551 cir0
203965 -75624 590.551 cir0
217465 -48624 590.551 cir0
217465 -51624 590.551 cir0
217465 -54624 590.551 cir0
217465 -57624 590.551 cir0
217465 -60624 590.551 cir0
217465 -63624 590.551 cir0
217465 -66624 590.551 cir0
217465 -69624 590.551 cir0
217465 -72624 590.551 cir0
217465 -75624 590.551 cir0
196465 -41124 590.551 cir0
196465 -44124 590.551 cir0
196465 -47124 590.551 cir0
224965 -36624 590.551 cir0
227965 -36624 590.551 cir0
230965 -36624 590.551 cir0
233965 -36624 590.551 cir0
236965 -36624 590.551 cir0
239965 -36624 590.551 cir0
242965 -36624 590.551 cir0
245965 -36624 590.551 cir0
248965 -36624 590.551 cir0
newpath
199217 -23150 moveto
199217 -24350 lineto
stroke
newpath
198617 -23750 moveto
199817 -23750 lineto
stroke
newpath
199217 -26150 moveto
199217 -27350 lineto
stroke
newpath
198617 -26750 moveto
199817 -26750 lineto
stroke
newpath
202217 -23150 moveto
202217 -24350 lineto
stroke
newpath
201617 -23750 moveto
202817 -23750 lineto
stroke
newpath
202217 -26150 moveto
202217 -27350 lineto
stroke
newpath
201617 -26750 moveto
202817 -26750 lineto
stroke
newpath
205217 -23150 moveto
205217 -24350 lineto
stroke
newpath
204617 -23750 moveto
205817 -23750 lineto
stroke
newpath
205217 -26150 moveto
205217 -27350 lineto
stroke
newpath
204617 -26750 moveto
205817 -26750 lineto
stroke
newpath
208217 -23150 moveto
208217 -24350 lineto
stroke
newpath
207617 -23750 moveto
208817 -23750 lineto
stroke
newpath
208217 -26150 moveto
208217 -27350 lineto
stroke
newpath
207617 -26750 moveto
208817 -26750 lineto
stroke
newpath
211217 -23150 moveto
211217 -24350 lineto
stroke
newpath
210617 -23750 moveto
211817 -23750 lineto
stroke
newpath
211217 -26150 moveto
211217 -27350 lineto
stroke
newpath
210617 -26750 moveto
211817 -26750 lineto
stroke
newpath
214217 -23150 moveto
214217 -24350 lineto
stroke
newpath
213617 -23750 moveto
214817 -23750 lineto
stroke
newpath
214217 -26150 moveto
214217 -27350 lineto
stroke
newpath
213617 -26750 moveto
214817 -26750 lineto
stroke
newpath
217217 -23150 moveto
217217 -24350 lineto
stroke
newpath
216617 -23750 moveto
217817 -23750 lineto
stroke
newpath
217217 -26150 moveto
217217 -27350 lineto
stroke
newpath
216617 -26750 moveto
217817 -26750 lineto
stroke
newpath
220217 -23150 moveto
220217 -24350 lineto
stroke
newpath
219617 -23750 moveto
220817 -23750 lineto
stroke
newpath
220217 -26150 moveto
220217 -27350 lineto
stroke
newpath
219617 -26750 moveto
220817 -26750 lineto
stroke
newpath
223217 -23150 moveto
223217 -24350 lineto
stroke
newpath
222617 -23750 moveto
223817 -23750 lineto
stroke
newpath
223217 -26150 moveto
223217 -27350 lineto
stroke
newpath
222617 -26750 moveto
223817 -26750 lineto
stroke
newpath
226217 -23150 moveto
226217 -24350 lineto
stroke
newpath
225617 -23750 moveto
226817 -23750 lineto
stroke
newpath
226217 -26150 moveto
226217 -27350 lineto
stroke
newpath
225617 -26750 moveto
226817 -26750 lineto
stroke
newpath
229217 -23150 moveto
229217 -24350 lineto
stroke
newpath
228617 -23750 moveto
229817 -23750 lineto
stroke
newpath
229217 -26150 moveto
229217 -27350 lineto
stroke
newpath
228617 -26750 moveto
229817 -26750 lineto
stroke
newpath
232217 -23150 moveto
232217 -24350 lineto
stroke
newpath
231617 -23750 moveto
232817 -23750 lineto
stroke
newpath
232217 -26150 moveto
232217 -27350 lineto
stroke
newpath
231617 -26750 moveto
232817 -26750 lineto
stroke
newpath
235217 -23150 moveto
235217 -24350 lineto
stroke
newpath
234617 -23750 moveto
235817 -23750 lineto
stroke
newpath
235217 -26150 moveto
235217 -27350 lineto
stroke
newpath
234617 -26750 moveto
235817 -26750 lineto
stroke
newpath
238217 -23150 moveto
238217 -24350 lineto
stroke
newpath
237617 -23750 moveto
238817 -23750 lineto
stroke
newpath
238217 -26150 moveto
238217 -27350 lineto
stroke
newpath
237617 -26750 moveto
238817 -26750 lineto
stroke
newpath
241217 -23150 moveto
241217 -24350 lineto
stroke
newpath
240617 -23750 moveto
241817 -23750 lineto
stroke
newpath
241217 -26150 moveto
241217 -27350 lineto
stroke
newpath
240617 -26750 moveto
241817 -26750 lineto
stroke
newpath
244217 -23150 moveto
244217 -24350 lineto
stroke
newpath
243617 -23750 moveto
244817 -23750 lineto
stroke
newpath
244217 -26150 moveto
244217 -27350 lineto
stroke
newpath
243617 -26750 moveto
244817 -26750 lineto
stroke
newpath
247217 -23150 moveto
247217 -24350 lineto
stroke
newpath
246617 -23750 moveto
247817 -23750 lineto
stroke
newpath
247217 -26150 moveto
247217 -27350 lineto
stroke
newpath
246617 -26750 moveto
247817 -26750 lineto
stroke
newpath
250217 -23150 moveto
250217 -24350 lineto
stroke
newpath
249617 -23750 moveto
250817 -23750 lineto
stroke
newpath
250217 -26150 moveto
250217 -27350 lineto
stroke
newpath
249617 -26750 moveto
250817 -26750 lineto
stroke
newpath
253217 -23150 moveto
253217 -24350 lineto
stroke
newpath
252617 -23750 moveto
253817 -23750 lineto
stroke
newpath
253217 -26150 moveto
253217 -27350 lineto
stroke
newpath
252617 -26750 moveto
253817 -26750 lineto
stroke
newpath
256217 -23150 moveto
256217 -24350 lineto
stroke
newpath
255617 -23750 moveto
256817 -23750 lineto
stroke
newpath
256217 -26150 moveto
256217 -27350 lineto
stroke
newpath
255617 -26750 moveto
256817 -26750 lineto
stroke
newpath
198424 -55083.3 moveto
198424 -54164.7 lineto
197506 -54164.7 lineto
197506 -55083.3 lineto
198424 -55083.3 lineto
poly0
newpath
198424 -58083.3 moveto
198424 -57164.7 lineto
197506 -57164.7 lineto
197506 -58083.3 lineto
198424 -58083.3 lineto
poly0
newpath
198424 -61083.3 moveto
198424 -60164.7 lineto
197506 -60164.7 lineto
197506 -61083.3 lineto
198424 -61083.3 lineto
poly0
newpath
198424 -64083.3 moveto
198424 -63164.7 lineto
197506 -63164.7 lineto
197506 -64083.3 lineto
198424 -64083.3 lineto
poly0
newpath
198424 -67083.3 moveto
198424 -66164.7 lineto
197506 -66164.7 lineto
197506 -67083.3 lineto
198424 -67083.3 lineto
poly0
newpath
198424 -70083.3 moveto
198424 -69164.7 lineto
197506 -69164.7 lineto
197506 -70083.3 lineto
198424 -70083.3 lineto
poly0
newpath
198424 -73083.3 moveto
198424 -72164.7 lineto
197506 -72164.7 lineto
197506 -73083.3 lineto
198424 -73083.3 lineto
poly0
newpath
198424 -76083.3 moveto
198424 -75164.7 lineto
197506 -75164.7 lineto
197506 -76083.3 lineto
198424 -76083.3 lineto
poly0
newpath
193465 -26874 moveto
195089 -25250 lineto
193465 -23626 lineto
191841 -25250 lineto
193465 -26874 lineto
poly0
newpath
193465 -84748 moveto
195089 -83124 lineto
193465 -81500 lineto
191841 -83124 lineto
193465 -84748 lineto
poly0
newpath
261969 -26874 moveto
263593 -25250 lineto
261969 -23626 lineto
260345 -25250 lineto
261969 -26874 lineto
poly0
newpath
261969 -84748 moveto
263593 -83124 lineto
261969 -81500 lineto
260345 -83124 lineto
261969 -84748 lineto
poly0
118.11 setlinewidth
0 0 0 setrgbcolor
0 0 0 setrgbcolor
newpath
59592.7 56042.5 moveto
59592.7 57223.6 lineto
59873.9 57223.6 lineto
60042.6 57167.3 lineto
60155.1 57054.9 lineto
60211.3 56942.4 lineto
60267.6 56717.4 lineto
60267.6 56548.7 lineto
60211.3 56323.7 lineto
60155.1 56211.2 lineto
60042.6 56098.7 lineto
59873.9 56042.5 lineto
59592.7 56042.5 lineto
stroke
newpath
60773.8 56042.5 moveto
60773.8 56829.9 lineto
stroke
newpath
60773.8 56604.9 moveto
60830 56717.4 lineto
60886.3 56773.6 lineto
60998.7 56829.9 lineto
61111.2 56829.9 lineto
stroke
newpath
61504.9 56042.5 moveto
61504.9 56829.9 lineto
stroke
newpath
61504.9 57223.6 moveto
61448.7 57167.3 lineto
61504.9 57111.1 lineto
61561.2 57167.3 lineto
61504.9 57223.6 lineto
61504.9 57111.1 lineto
stroke
newpath
62236.1 56042.5 moveto
62123.6 56098.7 lineto
62067.4 56211.2 lineto
62067.4 57223.6 lineto
stroke
newpath
62854.8 56042.5 moveto
62742.3 56098.7 lineto
62686 56211.2 lineto
62686 57223.6 lineto
stroke
newpath
64204.6 56042.5 moveto
64204.6 57223.6 lineto
64598.3 56379.9 lineto
64992 57223.6 lineto
64992 56042.5 lineto
stroke
newpath
66060.6 56042.5 moveto
66060.6 56661.2 lineto
66004.4 56773.6 lineto
65891.9 56829.9 lineto
65666.9 56829.9 lineto
65554.4 56773.6 lineto
stroke
newpath
66060.6 56098.7 moveto
65948.1 56042.5 lineto
65666.9 56042.5 lineto
65554.4 56098.7 lineto
65498.2 56211.2 lineto
65498.2 56323.7 lineto
65554.4 56436.2 lineto
65666.9 56492.4 lineto
65948.1 56492.4 lineto
66060.6 56548.7 lineto
stroke
newpath
66623 56829.9 moveto
66623 55648.8 lineto
stroke
newpath
66623 56773.6 moveto
66735.5 56829.9 lineto
66960.5 56829.9 lineto
67073 56773.6 lineto
67129.2 56717.4 lineto
67185.5 56604.9 lineto
67185.5 56267.5 lineto
67129.2 56155 lineto
67073 56098.7 lineto
66960.5 56042.5 lineto
66735.5 56042.5 lineto
66623 56098.7 lineto
stroke
newpath
67691.7 56155 moveto
67747.9 56098.7 lineto
67691.7 56042.5 lineto
67635.4 56098.7 lineto
67691.7 56155 lineto
67691.7 56042.5 lineto
stroke
newpath
67691.7 56773.6 moveto
67747.9 56717.4 lineto
67691.7 56661.2 lineto
67635.4 56717.4 lineto
67691.7 56773.6 lineto
67691.7 56661.2 lineto
stroke
newpath
57520.1 54568.9 moveto
58465 53624 lineto
stroke
newpath
58465 54568.9 moveto
57520.1 53624 lineto
stroke
0 0 0 setrgbcolor
0 0 0 setrgbcolor
newpath
59817.6 54743.3 moveto
59930.1 54743.3 lineto
60042.6 54687 lineto
60098.9 54630.8 lineto
60155.1 54518.3 lineto
60211.3 54293.3 lineto
60211.3 54012.1 lineto
60155.1 53787.1 lineto
60098.9 53674.7 lineto
60042.6 53618.4 lineto
59930.1 53562.2 lineto
59817.6 53562.2 lineto
59705.2 53618.4 lineto
59648.9 53674.7 lineto
59592.7 53787.1 lineto
59536.4 54012.1 lineto
59536.4 54293.3 lineto
59592.7 54518.3 lineto
59648.9 54630.8 lineto
59705.2 54687 lineto
59817.6 54743.3 lineto
stroke
newpath
60717.5 53674.7 moveto
60773.8 53618.4 lineto
60717.5 53562.2 lineto
60661.3 53618.4 lineto
60717.5 53674.7 lineto
60717.5 53562.2 lineto
stroke
newpath
61448.7 54237.1 moveto
61336.2 54293.3 lineto
61280 54349.6 lineto
61223.7 54462.1 lineto
61223.7 54518.3 lineto
61280 54630.8 lineto
61336.2 54687 lineto
61448.7 54743.3 lineto
61673.7 54743.3 lineto
61786.1 54687 lineto
61842.4 54630.8 lineto
61898.6 54518.3 lineto
61898.6 54462.1 lineto
61842.4 54349.6 lineto
61786.1 54293.3 lineto
61673.7 54237.1 lineto
61448.7 54237.1 lineto
61336.2 54180.8 lineto
61280 54124.6 lineto
61223.7 54012.1 lineto
61223.7 53787.1 lineto
61280 53674.7 lineto
61336.2 53618.4 lineto
61448.7 53562.2 lineto
61673.7 53562.2 lineto
61786.1 53618.4 lineto
61842.4 53674.7 lineto
61898.6 53787.1 lineto
61898.6 54012.1 lineto
61842.4 54124.6 lineto
61786.1 54180.8 lineto
61673.7 54237.1 lineto
stroke
newpath
62629.8 54743.3 moveto
62742.3 54743.3 lineto
62854.8 54687 lineto
62911 54630.8 lineto
62967.3 54518.3 lineto
63023.5 54293.3 lineto
63023.5 54012.1 lineto
62967.3 53787.1 lineto
62911 53674.7 lineto
62854.8 53618.4 lineto
62742.3 53562.2 lineto
62629.8 53562.2 lineto
62517.3 53618.4 lineto
62461.1 53674.7 lineto
62404.8 53787.1 lineto
62348.6 54012.1 lineto
62348.6 54293.3 lineto
62404.8 54518.3 lineto
62461.1 54630.8 lineto
62517.3 54687 lineto
62629.8 54743.3 lineto
stroke
newpath
63529.7 53562.2 moveto
63529.7 54349.6 lineto
stroke
newpath
63529.7 54237.1 moveto
63585.9 54293.3 lineto
63698.4 54349.6 lineto
63867.1 54349.6 lineto
63979.6 54293.3 lineto
64035.9 54180.8 lineto
64035.9 53562.2 lineto
stroke
newpath
64035.9 54180.8 moveto
64092.1 54293.3 lineto
64204.6 54349.6 lineto
64373.3 54349.6 lineto
64485.8 54293.3 lineto
64542.1 54180.8 lineto
64542.1 53562.2 lineto
stroke
newpath
65104.5 53562.2 moveto
65104.5 54349.6 lineto
stroke
newpath
65104.5 54237.1 moveto
65160.7 54293.3 lineto
65273.2 54349.6 lineto
65441.9 54349.6 lineto
65554.4 54293.3 lineto
65610.7 54180.8 lineto
65610.7 53562.2 lineto
stroke
newpath
65610.7 54180.8 moveto
65666.9 54293.3 lineto
65779.4 54349.6 lineto
65948.1 54349.6 lineto
66060.6 54293.3 lineto
66116.9 54180.8 lineto
66116.9 53562.2 lineto
stroke
newpath
68422.8 54799.5 moveto
67410.4 53280.9 lineto
stroke
newpath
69941.4 54743.3 moveto
70053.9 54743.3 lineto
70166.4 54687 lineto
70222.6 54630.8 lineto
70278.8 54518.3 lineto
70335.1 54293.3 lineto
70335.1 54012.1 lineto
70278.8 53787.1 lineto
70222.6 53674.7 lineto
70166.4 53618.4 lineto
70053.9 53562.2 lineto
69941.4 53562.2 lineto
69828.9 53618.4 lineto
69772.6 53674.7 lineto
69716.4 53787.1 lineto
69660.2 54012.1 lineto
69660.2 54293.3 lineto
69716.4 54518.3 lineto
69772.6 54630.8 lineto
69828.9 54687 lineto
69941.4 54743.3 lineto
stroke
newpath
70841.3 53674.7 moveto
70897.5 53618.4 lineto
70841.3 53562.2 lineto
70785 53618.4 lineto
70841.3 53674.7 lineto
70841.3 53562.2 lineto
stroke
newpath
71628.7 54743.3 moveto
71741.2 54743.3 lineto
71853.6 54687 lineto
71909.9 54630.8 lineto
71966.1 54518.3 lineto
72022.4 54293.3 lineto
72022.4 54012.1 lineto
71966.1 53787.1 lineto
71909.9 53674.7 lineto
71853.6 53618.4 lineto
71741.2 53562.2 lineto
71628.7 53562.2 lineto
71516.2 53618.4 lineto
71459.9 53674.7 lineto
71403.7 53787.1 lineto
71347.5 54012.1 lineto
71347.5 54293.3 lineto
71403.7 54518.3 lineto
71459.9 54630.8 lineto
71516.2 54687 lineto
71628.7 54743.3 lineto
stroke
newpath
72416.1 54743.3 moveto
73147.2 54743.3 lineto
72753.5 54293.3 lineto
72922.3 54293.3 lineto
73034.7 54237.1 lineto
73091 54180.8 lineto
73147.2 54068.4 lineto
73147.2 53787.1 lineto
73091 53674.7 lineto
73034.7 53618.4 lineto
72922.3 53562.2 lineto
72584.8 53562.2 lineto
72472.3 53618.4 lineto
72416.1 53674.7 lineto
stroke
newpath
74272.1 53562.2 moveto
73597.2 53562.2 lineto
stroke
newpath
73934.6 53562.2 moveto
73934.6 54743.3 lineto
73822.1 54574.5 lineto
73709.7 54462.1 lineto
73597.2 54405.8 lineto
stroke
newpath
74722 54743.3 moveto
74722 54518.3 lineto
stroke
newpath
75172 54743.3 moveto
75172 54518.3 lineto
stroke
newpath
76915.5 53112.2 moveto
76859.3 53168.5 lineto
76746.8 53337.2 lineto
76690.5 53449.7 lineto
76634.3 53618.4 lineto
76578 53899.6 lineto
76578 54124.6 lineto
76634.3 54405.8 lineto
76690.5 54574.5 lineto
76746.8 54687 lineto
76859.3 54855.8 lineto
76915.5 54912 lineto
stroke
newpath
77309.2 54630.8 moveto
77365.5 54687 lineto
77477.9 54743.3 lineto
77759.2 54743.3 lineto
77871.6 54687 lineto
77927.9 54630.8 lineto
77984.1 54518.3 lineto
77984.1 54405.8 lineto
77927.9 54237.1 lineto
77253 53562.2 lineto
77984.1 53562.2 lineto
stroke
newpath
79390.2 53562.2 moveto
79390.2 54743.3 lineto
stroke
newpath
79896.4 53562.2 moveto
79896.4 54180.8 lineto
79840.1 54293.3 lineto
79727.7 54349.6 lineto
79558.9 54349.6 lineto
79446.4 54293.3 lineto
79390.2 54237.1 lineto
stroke
newpath
80627.5 53562.2 moveto
80515.1 53618.4 lineto
80458.8 53674.7 lineto
80402.6 53787.1 lineto
80402.6 54124.6 lineto
80458.8 54237.1 lineto
80515.1 54293.3 lineto
80627.5 54349.6 lineto
80796.3 54349.6 lineto
80908.8 54293.3 lineto
80965 54237.1 lineto
81021.2 54124.6 lineto
81021.2 53787.1 lineto
80965 53674.7 lineto
80908.8 53618.4 lineto
80796.3 53562.2 lineto
80627.5 53562.2 lineto
stroke
newpath
81696.2 53562.2 moveto
81583.7 53618.4 lineto
81527.4 53730.9 lineto
81527.4 54743.3 lineto
stroke
newpath
82596 53618.4 moveto
82483.6 53562.2 lineto
82258.6 53562.2 lineto
82146.1 53618.4 lineto
82089.9 53730.9 lineto
82089.9 54180.8 lineto
82146.1 54293.3 lineto
82258.6 54349.6 lineto
82483.6 54349.6 lineto
82596 54293.3 lineto
82652.3 54180.8 lineto
82652.3 54068.4 lineto
82089.9 53955.9 lineto
stroke
newpath
83102.2 53618.4 moveto
83214.7 53562.2 lineto
83439.7 53562.2 lineto
83552.2 53618.4 lineto
83608.4 53730.9 lineto
83608.4 53787.1 lineto
83552.2 53899.6 lineto
83439.7 53955.9 lineto
83271 53955.9 lineto
83158.5 54012.1 lineto
83102.2 54124.6 lineto
83102.2 54180.8 lineto
83158.5 54293.3 lineto
83271 54349.6 lineto
83439.7 54349.6 lineto
83552.2 54293.3 lineto
stroke
newpath
84002.1 53112.2 moveto
84058.4 53168.5 lineto
84170.9 53337.2 lineto
84227.1 53449.7 lineto
84283.3 53618.4 lineto
84339.6 53899.6 lineto
84339.6 54124.6 lineto
84283.3 54405.8 lineto
84227.1 54574.5 lineto
84170.9 54687 lineto
84058.4 54855.8 lineto
84002.1 54912 lineto
stroke
57874.4 52537.4 590.551 cir0
0 0 0 setrgbcolor
0 0 0 setrgbcolor
newpath
60211.3 52003.1 moveto
59536.4 52003.1 lineto
stroke
newpath
59873.9 52003.1 moveto
59873.9 53184.2 lineto
59761.4 53015.5 lineto
59648.9 52903 lineto
59536.4 52846.8 lineto
stroke
newpath
60717.5 52115.6 moveto
60773.8 52059.4 lineto
60717.5 52003.1 lineto
60661.3 52059.4 lineto
60717.5 52115.6 lineto
60717.5 52003.1 lineto
stroke
newpath
61504.9 53184.2 moveto
61617.4 53184.2 lineto
61729.9 53128 lineto
61786.1 53071.7 lineto
61842.4 52959.2 lineto
61898.6 52734.3 lineto
61898.6 52453.1 lineto
61842.4 52228.1 lineto
61786.1 52115.6 lineto
61729.9 52059.4 lineto
61617.4 52003.1 lineto
61504.9 52003.1 lineto
61392.4 52059.4 lineto
61336.2 52115.6 lineto
61280 52228.1 lineto
61223.7 52453.1 lineto
61223.7 52734.3 lineto
61280 52959.2 lineto
61336.2 53071.7 lineto
61392.4 53128 lineto
61504.9 53184.2 lineto
stroke
newpath
62629.8 53184.2 moveto
62742.3 53184.2 lineto
62854.8 53128 lineto
62911 53071.7 lineto
62967.3 52959.2 lineto
63023.5 52734.3 lineto
63023.5 52453.1 lineto
62967.3 52228.1 lineto
62911 52115.6 lineto
62854.8 52059.4 lineto
62742.3 52003.1 lineto
62629.8 52003.1 lineto
62517.3 52059.4 lineto
62461.1 52115.6 lineto
62404.8 52228.1 lineto
62348.6 52453.1 lineto
62348.6 52734.3 lineto
62404.8 52959.2 lineto
62461.1 53071.7 lineto
62517.3 53128 lineto
62629.8 53184.2 lineto
stroke
newpath
63529.7 52003.1 moveto
63529.7 52790.5 lineto
stroke
newpath
63529.7 52678 moveto
63585.9 52734.3 lineto
63698.4 52790.5 lineto
63867.1 52790.5 lineto
63979.6 52734.3 lineto
64035.9 52621.8 lineto
64035.9 52003.1 lineto
stroke
newpath
64035.9 52621.8 moveto
64092.1 52734.3 lineto
64204.6 52790.5 lineto
64373.3 52790.5 lineto
64485.8 52734.3 lineto
64542.1 52621.8 lineto
64542.1 52003.1 lineto
stroke
newpath
65104.5 52003.1 moveto
65104.5 52790.5 lineto
stroke
newpath
65104.5 52678 moveto
65160.7 52734.3 lineto
65273.2 52790.5 lineto
65441.9 52790.5 lineto
65554.4 52734.3 lineto
65610.7 52621.8 lineto
65610.7 52003.1 lineto
stroke
newpath
65610.7 52621.8 moveto
65666.9 52734.3 lineto
65779.4 52790.5 lineto
65948.1 52790.5 lineto
66060.6 52734.3 lineto
66116.9 52621.8 lineto
66116.9 52003.1 lineto
stroke
newpath
68422.8 53240.5 moveto
67410.4 51721.9 lineto
stroke
newpath
69941.4 53184.2 moveto
70053.9 53184.2 lineto
70166.4 53128 lineto
70222.6 53071.7 lineto
70278.8 52959.2 lineto
70335.1 52734.3 lineto
70335.1 52453.1 lineto
70278.8 52228.1 lineto
70222.6 52115.6 lineto
70166.4 52059.4 lineto
70053.9 52003.1 lineto
69941.4 52003.1 lineto
69828.9 52059.4 lineto
69772.6 52115.6 lineto
69716.4 52228.1 lineto
69660.2 52453.1 lineto
69660.2 52734.3 lineto
69716.4 52959.2 lineto
69772.6 53071.7 lineto
69828.9 53128 lineto
69941.4 53184.2 lineto
stroke
newpath
70841.3 52115.6 moveto
70897.5 52059.4 lineto
70841.3 52003.1 lineto
70785 52059.4 lineto
70841.3 52115.6 lineto
70841.3 52003.1 lineto
stroke
newpath
71628.7 53184.2 moveto
71741.2 53184.2 lineto
71853.6 53128 lineto
71909.9 53071.7 lineto
71966.1 52959.2 lineto
72022.4 52734.3 lineto
72022.4 52453.1 lineto
71966.1 52228.1 lineto
71909.9 52115.6 lineto
71853.6 52059.4 lineto
71741.2 52003.1 lineto
71628.7 52003.1 lineto
71516.2 52059.4 lineto
71459.9 52115.6 lineto
71403.7 52228.1 lineto
71347.5 52453.1 lineto
71347.5 52734.3 lineto
71403.7 52959.2 lineto
71459.9 53071.7 lineto
71516.2 53128 lineto
71628.7 53184.2 lineto
stroke
newpath
72416.1 53184.2 moveto
73147.2 53184.2 lineto
72753.5 52734.3 lineto
72922.3 52734.3 lineto
73034.7 52678 lineto
73091 52621.8 lineto
73147.2 52509.3 lineto
73147.2 52228.1 lineto
73091 52115.6 lineto
73034.7 52059.4 lineto
72922.3 52003.1 lineto
72584.8 52003.1 lineto
72472.3 52059.4 lineto
72416.1 52115.6 lineto
stroke
newpath
73709.7 52003.1 moveto
73934.6 52003.1 lineto
74047.1 52059.4 lineto
74103.4 52115.6 lineto
74215.8 52284.3 lineto
74272.1 52509.3 lineto
74272.1 52959.2 lineto
74215.8 53071.7 lineto
74159.6 53128 lineto
74047.1 53184.2 lineto
73822.1 53184.2 lineto
73709.7 53128 lineto
73653.4 53071.7 lineto
73597.2 52959.2 lineto
73597.2 52678 lineto
73653.4 52565.5 lineto
73709.7 52509.3 lineto
73822.1 52453.1 lineto
74047.1 52453.1 lineto
74159.6 52509.3 lineto
74215.8 52565.5 lineto
74272.1 52678 lineto
stroke
newpath
74722 53184.2 moveto
74722 52959.2 lineto
stroke
newpath
75172 53184.2 moveto
75172 52959.2 lineto
stroke
newpath
76915.5 51553.2 moveto
76859.3 51609.4 lineto
76746.8 51778.1 lineto
76690.5 51890.6 lineto
76634.3 52059.4 lineto
76578 52340.6 lineto
76578 52565.5 lineto
76634.3 52846.8 lineto
76690.5 53015.5 lineto
76746.8 53128 lineto
76859.3 53296.7 lineto
76915.5 53352.9 lineto
stroke
newpath
77309.2 53071.7 moveto
77365.5 53128 lineto
77477.9 53184.2 lineto
77759.2 53184.2 lineto
77871.6 53128 lineto
77927.9 53071.7 lineto
77984.1 52959.2 lineto
77984.1 52846.8 lineto
77927.9 52678 lineto
77253 52003.1 lineto
77984.1 52003.1 lineto
stroke
newpath
78377.8 53184.2 moveto
79165.2 53184.2 lineto
78659 52003.1 lineto
stroke
newpath
80515.1 52003.1 moveto
80515.1 53184.2 lineto
stroke
newpath
81021.2 52003.1 moveto
81021.2 52621.8 lineto
80965 52734.3 lineto
80852.5 52790.5 lineto
80683.8 52790.5 lineto
80571.3 52734.3 lineto
80515.1 52678 lineto
stroke
newpath
81752.4 52003.1 moveto
81639.9 52059.4 lineto
81583.7 52115.6 lineto
81527.4 52228.1 lineto
81527.4 52565.5 lineto
81583.7 52678 lineto
81639.9 52734.3 lineto
81752.4 52790.5 lineto
81921.1 52790.5 lineto
82033.6 52734.3 lineto
82089.9 52678 lineto
82146.1 52565.5 lineto
82146.1 52228.1 lineto
82089.9 52115.6 lineto
82033.6 52059.4 lineto
81921.1 52003.1 lineto
81752.4 52003.1 lineto
stroke
newpath
82821 52003.1 moveto
82708.5 52059.4 lineto
82652.3 52171.8 lineto
82652.3 53184.2 lineto
stroke
newpath
83720.9 52059.4 moveto
83608.4 52003.1 lineto
83383.4 52003.1 lineto
83271 52059.4 lineto
83214.7 52171.8 lineto
83214.7 52621.8 lineto
83271 52734.3 lineto
83383.4 52790.5 lineto
83608.4 52790.5 lineto
83720.9 52734.3 lineto
83777.1 52621.8 lineto
83777.1 52509.3 lineto
83214.7 52396.8 lineto
stroke
newpath
84227.1 52059.4 moveto
84339.6 52003.1 lineto
84564.6 52003.1 lineto
84677 52059.4 lineto
84733.3 52171.8 lineto
84733.3 52228.1 lineto
84677 52340.6 lineto
84564.6 52396.8 lineto
84395.8 52396.8 lineto
84283.3 52453.1 lineto
84227.1 52565.5 lineto
84227.1 52621.8 lineto
84283.3 52734.3 lineto
84395.8 52790.5 lineto
84564.6 52790.5 lineto
84677 52734.3 lineto
stroke
newpath
85127 51553.2 moveto
85183.2 51609.4 lineto
85295.7 51778.1 lineto
85352 51890.6 lineto
85408.2 52059.4 lineto
85464.4 52340.6 lineto
85464.4 52565.5 lineto
85408.2 52846.8 lineto
85352 53015.5 lineto
85295.7 53128 lineto
85183.2 53296.7 lineto
85127 53352.9 lineto
stroke
newpath
57865 51444.5 moveto
57865 50244.5 lineto
stroke
newpath
57265 50844.5 moveto
58465 50844.5 lineto
stroke
0 0 0 setrgbcolor
0 0 0 setrgbcolor
newpath
60211.3 50310.2 moveto
59536.4 50310.2 lineto
stroke
newpath
59873.9 50310.2 moveto
59873.9 51491.3 lineto
59761.4 51322.6 lineto
59648.9 51210.1 lineto
59536.4 51153.8 lineto
stroke
newpath
60717.5 50422.7 moveto
60773.8 50366.4 lineto
60717.5 50310.2 lineto
60661.3 50366.4 lineto
60717.5 50422.7 lineto
60717.5 50310.2 lineto
stroke
newpath
61504.9 51491.3 moveto
61617.4 51491.3 lineto
61729.9 51435.1 lineto
61786.1 51378.8 lineto
61842.4 51266.3 lineto
61898.6 51041.4 lineto
61898.6 50760.1 lineto
61842.4 50535.2 lineto
61786.1 50422.7 lineto
61729.9 50366.4 lineto
61617.4 50310.2 lineto
61504.9 50310.2 lineto
61392.4 50366.4 lineto
61336.2 50422.7 lineto
61280 50535.2 lineto
61223.7 50760.1 lineto
61223.7 51041.4 lineto
61280 51266.3 lineto
61336.2 51378.8 lineto
61392.4 51435.1 lineto
61504.9 51491.3 lineto
stroke
newpath
62348.6 51378.8 moveto
62404.8 51435.1 lineto
62517.3 51491.3 lineto
62798.5 51491.3 lineto
62911 51435.1 lineto
62967.3 51378.8 lineto
63023.5 51266.3 lineto
63023.5 51153.8 lineto
62967.3 50985.1 lineto
62292.3 50310.2 lineto
63023.5 50310.2 lineto
stroke
newpath
63529.7 50310.2 moveto
63529.7 51097.6 lineto
stroke
newpath
63529.7 50985.1 moveto
63585.9 51041.4 lineto
63698.4 51097.6 lineto
63867.1 51097.6 lineto
63979.6 51041.4 lineto
64035.9 50928.9 lineto
64035.9 50310.2 lineto
stroke
newpath
64035.9 50928.9 moveto
64092.1 51041.4 lineto
64204.6 51097.6 lineto
64373.3 51097.6 lineto
64485.8 51041.4 lineto
64542.1 50928.9 lineto
64542.1 50310.2 lineto
stroke
newpath
65104.5 50310.2 moveto
65104.5 51097.6 lineto
stroke
newpath
65104.5 50985.1 moveto
65160.7 51041.4 lineto
65273.2 51097.6 lineto
65441.9 51097.6 lineto
65554.4 51041.4 lineto
65610.7 50928.9 lineto
65610.7 50310.2 lineto
stroke
newpath
65610.7 50928.9 moveto
65666.9 51041.4 lineto
65779.4 51097.6 lineto
65948.1 51097.6 lineto
66060.6 51041.4 lineto
66116.9 50928.9 lineto
66116.9 50310.2 lineto
stroke
newpath
68422.8 51547.5 moveto
67410.4 50029 lineto
stroke
newpath
69941.4 51491.3 moveto
70053.9 51491.3 lineto
70166.4 51435.1 lineto
70222.6 51378.8 lineto
70278.8 51266.3 lineto
70335.1 51041.4 lineto
70335.1 50760.1 lineto
70278.8 50535.2 lineto
70222.6 50422.7 lineto
70166.4 50366.4 lineto
70053.9 50310.2 lineto
69941.4 50310.2 lineto
69828.9 50366.4 lineto
69772.6 50422.7 lineto
69716.4 50535.2 lineto
69660.2 50760.1 lineto
69660.2 51041.4 lineto
69716.4 51266.3 lineto
69772.6 51378.8 lineto
69828.9 51435.1 lineto
69941.4 51491.3 lineto
stroke
newpath
70841.3 50422.7 moveto
70897.5 50366.4 lineto
70841.3 50310.2 lineto
70785 50366.4 lineto
70841.3 50422.7 lineto
70841.3 50310.2 lineto
stroke
newpath
71628.7 51491.3 moveto
71741.2 51491.3 lineto
71853.6 51435.1 lineto
71909.9 51378.8 lineto
71966.1 51266.3 lineto
72022.4 51041.4 lineto
72022.4 50760.1 lineto
71966.1 50535.2 lineto
71909.9 50422.7 lineto
71853.6 50366.4 lineto
71741.2 50310.2 lineto
71628.7 50310.2 lineto
71516.2 50366.4 lineto
71459.9 50422.7 lineto
71403.7 50535.2 lineto
71347.5 50760.1 lineto
71347.5 51041.4 lineto
71403.7 51266.3 lineto
71459.9 51378.8 lineto
71516.2 51435.1 lineto
71628.7 51491.3 lineto
stroke
newpath
73034.7 51097.6 moveto
73034.7 50310.2 lineto
stroke
newpath
72753.5 51547.5 moveto
72472.3 50703.9 lineto
73203.5 50703.9 lineto
stroke
newpath
73878.4 51491.3 moveto
73990.9 51491.3 lineto
74103.4 51435.1 lineto
74159.6 51378.8 lineto
74215.8 51266.3 lineto
74272.1 51041.4 lineto
74272.1 50760.1 lineto
74215.8 50535.2 lineto
74159.6 50422.7 lineto
74103.4 50366.4 lineto
73990.9 50310.2 lineto
73878.4 50310.2 lineto
73765.9 50366.4 lineto
73709.7 50422.7 lineto
73653.4 50535.2 lineto
73597.2 50760.1 lineto
73597.2 51041.4 lineto
73653.4 51266.3 lineto
73709.7 51378.8 lineto
73765.9 51435.1 lineto
73878.4 51491.3 lineto
stroke
newpath
74722 51491.3 moveto
74722 51266.3 lineto
stroke
newpath
75172 51491.3 moveto
75172 51266.3 lineto
stroke
newpath
76915.5 49860.3 moveto
76859.3 49916.5 lineto
76746.8 50085.2 lineto
76690.5 50197.7 lineto
76634.3 50366.4 lineto
76578 50647.7 lineto
76578 50872.6 lineto
76634.3 51153.8 lineto
76690.5 51322.6 lineto
76746.8 51435.1 lineto
76859.3 51603.8 lineto
76915.5 51660 lineto
stroke
newpath
77871.6 51097.6 moveto
77871.6 50310.2 lineto
stroke
newpath
77590.4 51547.5 moveto
77309.2 50703.9 lineto
78040.4 50703.9 lineto
stroke
newpath
78715.3 51491.3 moveto
78827.8 51491.3 lineto
78940.3 51435.1 lineto
78996.5 51378.8 lineto
79052.7 51266.3 lineto
79109 51041.4 lineto
79109 50760.1 lineto
79052.7 50535.2 lineto
78996.5 50422.7 lineto
78940.3 50366.4 lineto
78827.8 50310.2 lineto
78715.3 50310.2 lineto
78602.8 50366.4 lineto
78546.6 50422.7 lineto
78490.3 50535.2 lineto
78434.1 50760.1 lineto
78434.1 51041.4 lineto
78490.3 51266.3 lineto
78546.6 51378.8 lineto
78602.8 51435.1 lineto
78715.3 51491.3 lineto
stroke
newpath
80515.1 50310.2 moveto
80515.1 51491.3 lineto
stroke
newpath
81021.2 50310.2 moveto
81021.2 50928.9 lineto
80965 51041.4 lineto
80852.5 51097.6 lineto
80683.8 51097.6 lineto
80571.3 51041.4 lineto
80515.1 50985.1 lineto
stroke
newpath
81752.4 50310.2 moveto
81639.9 50366.4 lineto
81583.7 50422.7 lineto
81527.4 50535.2 lineto
81527.4 50872.6 lineto
81583.7 50985.1 lineto
81639.9 51041.4 lineto
81752.4 51097.6 lineto
81921.1 51097.6 lineto
82033.6 51041.4 lineto
82089.9 50985.1 lineto
82146.1 50872.6 lineto
82146.1 50535.2 lineto
82089.9 50422.7 lineto
82033.6 50366.4 lineto
81921.1 50310.2 lineto
81752.4 50310.2 lineto
stroke
newpath
82821 50310.2 moveto
82708.5 50366.4 lineto
82652.3 50478.9 lineto
82652.3 51491.3 lineto
stroke
newpath
83720.9 50366.4 moveto
83608.4 50310.2 lineto
83383.4 50310.2 lineto
83271 50366.4 lineto
83214.7 50478.9 lineto
83214.7 50928.9 lineto
83271 51041.4 lineto
83383.4 51097.6 lineto
83608.4 51097.6 lineto
83720.9 51041.4 lineto
83777.1 50928.9 lineto
83777.1 50816.4 lineto
83214.7 50703.9 lineto
stroke
newpath
84227.1 50366.4 moveto
84339.6 50310.2 lineto
84564.6 50310.2 lineto
84677 50366.4 lineto
84733.3 50478.9 lineto
84733.3 50535.2 lineto
84677 50647.7 lineto
84564.6 50703.9 lineto
84395.8 50703.9 lineto
84283.3 50760.1 lineto
84227.1 50872.6 lineto
84227.1 50928.9 lineto
84283.3 51041.4 lineto
84395.8 51097.6 lineto
84564.6 51097.6 lineto
84677 51041.4 lineto
stroke
newpath
85127 49860.3 moveto
85183.2 49916.5 lineto
85295.7 50085.2 lineto
85352 50197.7 lineto
85408.2 50366.4 lineto
85464.4 50647.7 lineto
85464.4 50872.6 lineto
85408.2 51153.8 lineto
85352 51322.6 lineto
85295.7 51435.1 lineto
85183.2 51603.8 lineto
85127 51660 lineto
stroke
newpath
58274.7 48673.3 moveto
58274.7 49592 lineto
57356 49592 lineto
57356 48673.3 lineto
58274.7 48673.3 lineto
poly0
0 0 0 setrgbcolor
0 0 0 setrgbcolor
newpath
60211.3 48598.4 moveto
59536.4 48598.4 lineto
stroke
newpath
59873.9 48598.4 moveto
59873.9 49779.5 lineto
59761.4 49610.8 lineto
59648.9 49498.3 lineto
59536.4 49442 lineto
stroke
newpath
60717.5 48710.9 moveto
60773.8 48654.6 lineto
60717.5 48598.4 lineto
60661.3 48654.6 lineto
60717.5 48710.9 lineto
60717.5 48598.4 lineto
stroke
newpath
61898.6 48598.4 moveto
61223.7 48598.4 lineto
stroke
newpath
61561.2 48598.4 moveto
61561.2 49779.5 lineto
61448.7 49610.8 lineto
61336.2 49498.3 lineto
61223.7 49442 lineto
stroke
newpath
62629.8 49779.5 moveto
62742.3 49779.5 lineto
62854.8 49723.2 lineto
62911 49667 lineto
62967.3 49554.5 lineto
63023.5 49329.5 lineto
63023.5 49048.3 lineto
62967.3 48823.4 lineto
62911 48710.9 lineto
62854.8 48654.6 lineto
62742.3 48598.4 lineto
62629.8 48598.4 lineto
62517.3 48654.6 lineto
62461.1 48710.9 lineto
62404.8 48823.4 lineto
62348.6 49048.3 lineto
62348.6 49329.5 lineto
62404.8 49554.5 lineto
62461.1 49667 lineto
62517.3 49723.2 lineto
62629.8 49779.5 lineto
stroke
newpath
63529.7 48598.4 moveto
63529.7 49385.8 lineto
stroke
newpath
63529.7 49273.3 moveto
63585.9 49329.5 lineto
63698.4 49385.8 lineto
63867.1 49385.8 lineto
63979.6 49329.5 lineto
64035.9 49217.1 lineto
64035.9 48598.4 lineto
stroke
newpath
64035.9 49217.1 moveto
64092.1 49329.5 lineto
64204.6 49385.8 lineto
64373.3 49385.8 lineto
64485.8 49329.5 lineto
64542.1 49217.1 lineto
64542.1 48598.4 lineto
stroke
newpath
65104.5 48598.4 moveto
65104.5 49385.8 lineto
stroke
newpath
65104.5 49273.3 moveto
65160.7 49329.5 lineto
65273.2 49385.8 lineto
65441.9 49385.8 lineto
65554.4 49329.5 lineto
65610.7 49217.1 lineto
65610.7 48598.4 lineto
stroke
newpath
65610.7 49217.1 moveto
65666.9 49329.5 lineto
65779.4 49385.8 lineto
65948.1 49385.8 lineto
66060.6 49329.5 lineto
66116.9 49217.1 lineto
66116.9 48598.4 lineto
stroke
newpath
68422.8 49835.7 moveto
67410.4 48317.2 lineto
stroke
newpath
69941.4 49779.5 moveto
70053.9 49779.5 lineto
70166.4 49723.2 lineto
70222.6 49667 lineto
70278.8 49554.5 lineto
70335.1 49329.5 lineto
70335.1 49048.3 lineto
70278.8 48823.4 lineto
70222.6 48710.9 lineto
70166.4 48654.6 lineto
70053.9 48598.4 lineto
69941.4 48598.4 lineto
69828.9 48654.6 lineto
69772.6 48710.9 lineto
69716.4 48823.4 lineto
69660.2 49048.3 lineto
69660.2 49329.5 lineto
69716.4 49554.5 lineto
69772.6 49667 lineto
69828.9 49723.2 lineto
69941.4 49779.5 lineto
stroke
newpath
70841.3 48710.9 moveto
70897.5 48654.6 lineto
70841.3 48598.4 lineto
70785 48654.6 lineto
70841.3 48710.9 lineto
70841.3 48598.4 lineto
stroke
newpath
71628.7 49779.5 moveto
71741.2 49779.5 lineto
71853.6 49723.2 lineto
71909.9 49667 lineto
71966.1 49554.5 lineto
72022.4 49329.5 lineto
72022.4 49048.3 lineto
71966.1 48823.4 lineto
71909.9 48710.9 lineto
71853.6 48654.6 lineto
71741.2 48598.4 lineto
71628.7 48598.4 lineto
71516.2 48654.6 lineto
71459.9 48710.9 lineto
71403.7 48823.4 lineto
71347.5 49048.3 lineto
71347.5 49329.5 lineto
71403.7 49554.5 lineto
71459.9 49667 lineto
71516.2 49723.2 lineto
71628.7 49779.5 lineto
stroke
newpath
73034.7 49385.8 moveto
73034.7 48598.4 lineto
stroke
newpath
72753.5 49835.7 moveto
72472.3 48992.1 lineto
73203.5 48992.1 lineto
stroke
newpath
73540.9 49779.5 moveto
74272.1 49779.5 lineto
73878.4 49329.5 lineto
74047.1 49329.5 lineto
74159.6 49273.3 lineto
74215.8 49217.1 lineto
74272.1 49104.6 lineto
74272.1 48823.4 lineto
74215.8 48710.9 lineto
74159.6 48654.6 lineto
74047.1 48598.4 lineto
73709.7 48598.4 lineto
73597.2 48654.6 lineto
73540.9 48710.9 lineto
stroke
newpath
74722 49779.5 moveto
74722 49554.5 lineto
stroke
newpath
75172 49779.5 moveto
75172 49554.5 lineto
stroke
newpath
76915.5 48148.4 moveto
76859.3 48204.7 lineto
76746.8 48373.4 lineto
76690.5 48485.9 lineto
76634.3 48654.6 lineto
76578 48935.8 lineto
76578 49160.8 lineto
76634.3 49442 lineto
76690.5 49610.8 lineto
76746.8 49723.2 lineto
76859.3 49892 lineto
76915.5 49948.2 lineto
stroke
newpath
77534.2 49273.3 moveto
77421.7 49329.5 lineto
77365.5 49385.8 lineto
77309.2 49498.3 lineto
77309.2 49554.5 lineto
77365.5 49667 lineto
77421.7 49723.2 lineto
77534.2 49779.5 lineto
77759.2 49779.5 lineto
77871.6 49723.2 lineto
77927.9 49667 lineto
77984.1 49554.5 lineto
77984.1 49498.3 lineto
77927.9 49385.8 lineto
77871.6 49329.5 lineto
77759.2 49273.3 lineto
77534.2 49273.3 lineto
77421.7 49217.1 lineto
77365.5 49160.8 lineto
77309.2 49048.3 lineto
77309.2 48823.4 lineto
77365.5 48710.9 lineto
77421.7 48654.6 lineto
77534.2 48598.4 lineto
77759.2 48598.4 lineto
77871.6 48654.6 lineto
77927.9 48710.9 lineto
77984.1 48823.4 lineto
77984.1 49048.3 lineto
77927.9 49160.8 lineto
77871.6 49217.1 lineto
77759.2 49273.3 lineto
stroke
newpath
79390.2 48598.4 moveto
79390.2 49779.5 lineto
stroke
newpath
79896.4 48598.4 moveto
79896.4 49217.1 lineto
79840.1 49329.5 lineto
79727.7 49385.8 lineto
79558.9 49385.8 lineto
79446.4 49329.5 lineto
79390.2 49273.3 lineto
stroke
newpath
80627.5 48598.4 moveto
80515.1 48654.6 lineto
80458.8 48710.9 lineto
80402.6 48823.4 lineto
80402.6 49160.8 lineto
80458.8 49273.3 lineto
80515.1 49329.5 lineto
80627.5 49385.8 lineto
80796.3 49385.8 lineto
80908.8 49329.5 lineto
80965 49273.3 lineto
81021.2 49160.8 lineto
81021.2 48823.4 lineto
80965 48710.9 lineto
80908.8 48654.6 lineto
80796.3 48598.4 lineto
80627.5 48598.4 lineto
stroke
newpath
81696.2 48598.4 moveto
81583.7 48654.6 lineto
81527.4 48767.1 lineto
81527.4 49779.5 lineto
stroke
newpath
82596 48654.6 moveto
82483.6 48598.4 lineto
82258.6 48598.4 lineto
82146.1 48654.6 lineto
82089.9 48767.1 lineto
82089.9 49217.1 lineto
82146.1 49329.5 lineto
82258.6 49385.8 lineto
82483.6 49385.8 lineto
82596 49329.5 lineto
82652.3 49217.1 lineto
82652.3 49104.6 lineto
82089.9 48992.1 lineto
stroke
newpath
83102.2 48654.6 moveto
83214.7 48598.4 lineto
83439.7 48598.4 lineto
83552.2 48654.6 lineto
83608.4 48767.1 lineto
83608.4 48823.4 lineto
83552.2 48935.8 lineto
83439.7 48992.1 lineto
83271 48992.1 lineto
83158.5 49048.3 lineto
83102.2 49160.8 lineto
83102.2 49217.1 lineto
83158.5 49329.5 lineto
83271 49385.8 lineto
83439.7 49385.8 lineto
83552.2 49329.5 lineto
stroke
newpath
84002.1 48148.4 moveto
84058.4 48204.7 lineto
84170.9 48373.4 lineto
84227.1 48485.9 lineto
84283.3 48654.6 lineto
84339.6 48935.8 lineto
84339.6 49160.8 lineto
84283.3 49442 lineto
84227.1 49610.8 lineto
84170.9 49723.2 lineto
84058.4 49892 lineto
84002.1 49948.2 lineto
stroke
newpath
56841 45697.7 moveto
58465 47321.7 lineto
56841 48945.7 lineto
55217 47321.7 lineto
56841 45697.7 lineto
poly0
0 0 0 setrgbcolor
0 0 0 setrgbcolor
newpath
59536.4 47856 moveto
59592.7 47912.2 lineto
59705.2 47968.5 lineto
59986.4 47968.5 lineto
60098.9 47912.2 lineto
60155.1 47856 lineto
60211.3 47743.5 lineto
60211.3 47631 lineto
60155.1 47462.3 lineto
59480.2 46787.4 lineto
60211.3 46787.4 lineto
stroke
newpath
60717.5 46899.8 moveto
60773.8 46843.6 lineto
60717.5 46787.4 lineto
60661.3 46843.6 lineto
60717.5 46899.8 lineto
60717.5 46787.4 lineto
stroke
newpath
61167.5 47968.5 moveto
61954.9 47968.5 lineto
61448.7 46787.4 lineto
stroke
newpath
62967.3 47968.5 moveto
62404.8 47968.5 lineto
62348.6 47406 lineto
62404.8 47462.3 lineto
62517.3 47518.5 lineto
62798.5 47518.5 lineto
62911 47462.3 lineto
62967.3 47406 lineto
63023.5 47293.5 lineto
63023.5 47012.3 lineto
62967.3 46899.8 lineto
62911 46843.6 lineto
62798.5 46787.4 lineto
62517.3 46787.4 lineto
62404.8 46843.6 lineto
62348.6 46899.8 lineto
stroke
newpath
63529.7 46787.4 moveto
63529.7 47574.8 lineto
stroke
newpath
63529.7 47462.3 moveto
63585.9 47518.5 lineto
63698.4 47574.8 lineto
63867.1 47574.8 lineto
63979.6 47518.5 lineto
64035.9 47406 lineto
64035.9 46787.4 lineto
stroke
newpath
64035.9 47406 moveto
64092.1 47518.5 lineto
64204.6 47574.8 lineto
64373.3 47574.8 lineto
64485.8 47518.5 lineto
64542.1 47406 lineto
64542.1 46787.4 lineto
stroke
newpath
65104.5 46787.4 moveto
65104.5 47574.8 lineto
stroke
newpath
65104.5 47462.3 moveto
65160.7 47518.5 lineto
65273.2 47574.8 lineto
65441.9 47574.8 lineto
65554.4 47518.5 lineto
65610.7 47406 lineto
65610.7 46787.4 lineto
stroke
newpath
65610.7 47406 moveto
65666.9 47518.5 lineto
65779.4 47574.8 lineto
65948.1 47574.8 lineto
66060.6 47518.5 lineto
66116.9 47406 lineto
66116.9 46787.4 lineto
stroke
newpath
68422.8 48024.7 moveto
67410.4 46506.1 lineto
stroke
newpath
69941.4 47968.5 moveto
70053.9 47968.5 lineto
70166.4 47912.2 lineto
70222.6 47856 lineto
70278.8 47743.5 lineto
70335.1 47518.5 lineto
70335.1 47237.3 lineto
70278.8 47012.3 lineto
70222.6 46899.8 lineto
70166.4 46843.6 lineto
70053.9 46787.4 lineto
69941.4 46787.4 lineto
69828.9 46843.6 lineto
69772.6 46899.8 lineto
69716.4 47012.3 lineto
69660.2 47237.3 lineto
69660.2 47518.5 lineto
69716.4 47743.5 lineto
69772.6 47856 lineto
69828.9 47912.2 lineto
69941.4 47968.5 lineto
stroke
newpath
70841.3 46899.8 moveto
70897.5 46843.6 lineto
70841.3 46787.4 lineto
70785 46843.6 lineto
70841.3 46899.8 lineto
70841.3 46787.4 lineto
stroke
newpath
72022.4 46787.4 moveto
71347.5 46787.4 lineto
stroke
newpath
71684.9 46787.4 moveto
71684.9 47968.5 lineto
71572.4 47799.7 lineto
71459.9 47687.2 lineto
71347.5 47631 lineto
stroke
newpath
72753.5 47968.5 moveto
72866 47968.5 lineto
72978.5 47912.2 lineto
73034.7 47856 lineto
73091 47743.5 lineto
73147.2 47518.5 lineto
73147.2 47237.3 lineto
73091 47012.3 lineto
73034.7 46899.8 lineto
72978.5 46843.6 lineto
72866 46787.4 lineto
72753.5 46787.4 lineto
72641 46843.6 lineto
72584.8 46899.8 lineto
72528.6 47012.3 lineto
72472.3 47237.3 lineto
72472.3 47518.5 lineto
72528.6 47743.5 lineto
72584.8 47856 lineto
72641 47912.2 lineto
72753.5 47968.5 lineto
stroke
newpath
73822.1 47462.3 moveto
73709.7 47518.5 lineto
73653.4 47574.8 lineto
73597.2 47687.2 lineto
73597.2 47743.5 lineto
73653.4 47856 lineto
73709.7 47912.2 lineto
73822.1 47968.5 lineto
74047.1 47968.5 lineto
74159.6 47912.2 lineto
74215.8 47856 lineto
74272.1 47743.5 lineto
74272.1 47687.2 lineto
74215.8 47574.8 lineto
74159.6 47518.5 lineto
74047.1 47462.3 lineto
73822.1 47462.3 lineto
73709.7 47406 lineto
73653.4 47349.8 lineto
73597.2 47237.3 lineto
73597.2 47012.3 lineto
73653.4 46899.8 lineto
73709.7 46843.6 lineto
73822.1 46787.4 lineto
74047.1 46787.4 lineto
74159.6 46843.6 lineto
74215.8 46899.8 lineto
74272.1 47012.3 lineto
74272.1 47237.3 lineto
74215.8 47349.8 lineto
74159.6 47406 lineto
74047.1 47462.3 lineto
stroke
newpath
74722 47968.5 moveto
74722 47743.5 lineto
stroke
newpath
75172 47968.5 moveto
75172 47743.5 lineto
stroke
newpath
76915.5 46337.4 moveto
76859.3 46393.7 lineto
76746.8 46562.4 lineto
76690.5 46674.9 lineto
76634.3 46843.6 lineto
76578 47124.8 lineto
76578 47349.8 lineto
76634.3 47631 lineto
76690.5 47799.7 lineto
76746.8 47912.2 lineto
76859.3 48081 lineto
76915.5 48137.2 lineto
stroke
newpath
77871.6 47574.8 moveto
77871.6 46787.4 lineto
stroke
newpath
77590.4 48024.7 moveto
77309.2 47181.1 lineto
78040.4 47181.1 lineto
stroke
newpath
79390.2 46787.4 moveto
79390.2 47968.5 lineto
stroke
newpath
79896.4 46787.4 moveto
79896.4 47406 lineto
79840.1 47518.5 lineto
79727.7 47574.8 lineto
79558.9 47574.8 lineto
79446.4 47518.5 lineto
79390.2 47462.3 lineto
stroke
newpath
80627.5 46787.4 moveto
80515.1 46843.6 lineto
80458.8 46899.8 lineto
80402.6 47012.3 lineto
80402.6 47349.8 lineto
80458.8 47462.3 lineto
80515.1 47518.5 lineto
80627.5 47574.8 lineto
80796.3 47574.8 lineto
80908.8 47518.5 lineto
80965 47462.3 lineto
81021.2 47349.8 lineto
81021.2 47012.3 lineto
80965 46899.8 lineto
80908.8 46843.6 lineto
80796.3 46787.4 lineto
80627.5 46787.4 lineto
stroke
newpath
81696.2 46787.4 moveto
81583.7 46843.6 lineto
81527.4 46956.1 lineto
81527.4 47968.5 lineto
stroke
newpath
82596 46843.6 moveto
82483.6 46787.4 lineto
82258.6 46787.4 lineto
82146.1 46843.6 lineto
82089.9 46956.1 lineto
82089.9 47406 lineto
82146.1 47518.5 lineto
82258.6 47574.8 lineto
82483.6 47574.8 lineto
82596 47518.5 lineto
82652.3 47406 lineto
82652.3 47293.5 lineto
82089.9 47181.1 lineto
stroke
newpath
83102.2 46843.6 moveto
83214.7 46787.4 lineto
83439.7 46787.4 lineto
83552.2 46843.6 lineto
83608.4 46956.1 lineto
83608.4 47012.3 lineto
83552.2 47124.8 lineto
83439.7 47181.1 lineto
83271 47181.1 lineto
83158.5 47237.3 lineto
83102.2 47349.8 lineto
83102.2 47406 lineto
83158.5 47518.5 lineto
83271 47574.8 lineto
83439.7 47574.8 lineto
83552.2 47518.5 lineto
stroke
newpath
84002.1 46337.4 moveto
84058.4 46393.7 lineto
84170.9 46562.4 lineto
84227.1 46674.9 lineto
84283.3 46843.6 lineto
84339.6 47124.8 lineto
84339.6 47349.8 lineto
84283.3 47631 lineto
84227.1 47799.7 lineto
84170.9 47912.2 lineto
84058.4 48081 lineto
84002.1 48137.2 lineto
stroke
showpage
grestore
%%EOF
