%!PS-Adobe-3.0
%%Creator: PCBNEW
%%CreationDate: Mon Dec 14 14:43:59 2020
%%Title: /home/ubuntu/hylkema/Projects/rpiCarGps/PCB/Gerber/carGpsHat-NPTH-drl_map.ps
%%Pages: 1
%%PageOrder: Ascend
%%BoundingBox: 0 0 596 842
%%DocumentMedia: A4 595 842 0 () ()
%%Orientation: Landscape
%%EndComments
%%BeginProlog
/line { newpath moveto lineto stroke } bind def
/cir0 { newpath 0 360 arc stroke } bind def
/cir1 { newpath 0 360 arc gsave fill grestore stroke } bind def
/cir2 { newpath 0 360 arc gsave fill grestore stroke } bind def
/arc0 { newpath arc stroke } bind def
/arc1 { newpath 4 index 4 index moveto arc closepath gsave fill
    grestore stroke } bind def
/arc2 { newpath 4 index 4 index moveto arc closepath gsave fill
    grestore stroke } bind def
/poly0 { stroke } bind def
/poly1 { closepath gsave fill grestore stroke } bind def
/poly2 { closepath gsave fill grestore stroke } bind def
/rect0 { rectstroke } bind def
/rect1 { rectfill } bind def
/rect2 { rectfill } bind def
/linemode0 { 0 setlinecap 0 setlinejoin 0 setlinewidth } bind def
/linemode1 { 1 setlinecap 1 setlinejoin } bind def
/dashedline { [200] 100 setdash } bind def
/solidline { [] 0 setdash } bind def
/phantomshow { moveto
    /KicadFont findfont 0.000001 scalefont setfont
    show } bind def
/textshow { gsave
    findfont exch scalefont setfont concat 1 scale 0 0 moveto show
    } bind def
/reencodefont {
  findfont dup length dict begin
  { 1 index /FID ne
    { def }
    { pop pop } ifelse
  } forall
  /Encoding ISOLatin1Encoding def
  currentdict
  end } bind def
/KicadFont /Helvetica reencodefont definefont pop
/KicadFont-Bold /Helvetica-Bold reencodefont definefont pop
/KicadFont-Oblique /Helvetica-Oblique reencodefont definefont pop
/KicadFont-BoldOblique /Helvetica-BoldOblique reencodefont definefont pop
%%EndProlog
%%Page: 1 1
%%BeginPageSetup
gsave
0.0072 0.0072 scale
linemode1
82680 0 translate 90 rotate
150 setlinewidth
%%EndPageSetup
78.7394 setlinewidth
118.11 setlinewidth
0 0 0 setrgbcolor
0 0 0 setrgbcolor
newpath
59592.7 56042.5 moveto
59592.7 57223.6 lineto
59873.9 57223.6 lineto
60042.6 57167.3 lineto
60155.1 57054.9 lineto
60211.3 56942.4 lineto
60267.6 56717.4 lineto
60267.6 56548.7 lineto
60211.3 56323.7 lineto
60155.1 56211.2 lineto
60042.6 56098.7 lineto
59873.9 56042.5 lineto
59592.7 56042.5 lineto
stroke
newpath
60773.8 56042.5 moveto
60773.8 56829.9 lineto
stroke
newpath
60773.8 56604.9 moveto
60830 56717.4 lineto
60886.3 56773.6 lineto
60998.7 56829.9 lineto
61111.2 56829.9 lineto
stroke
newpath
61504.9 56042.5 moveto
61504.9 56829.9 lineto
stroke
newpath
61504.9 57223.6 moveto
61448.7 57167.3 lineto
61504.9 57111.1 lineto
61561.2 57167.3 lineto
61504.9 57223.6 lineto
61504.9 57111.1 lineto
stroke
newpath
62236.1 56042.5 moveto
62123.6 56098.7 lineto
62067.4 56211.2 lineto
62067.4 57223.6 lineto
stroke
newpath
62854.8 56042.5 moveto
62742.3 56098.7 lineto
62686 56211.2 lineto
62686 57223.6 lineto
stroke
newpath
64204.6 56042.5 moveto
64204.6 57223.6 lineto
64598.3 56379.9 lineto
64992 57223.6 lineto
64992 56042.5 lineto
stroke
newpath
66060.6 56042.5 moveto
66060.6 56661.2 lineto
66004.4 56773.6 lineto
65891.9 56829.9 lineto
65666.9 56829.9 lineto
65554.4 56773.6 lineto
stroke
newpath
66060.6 56098.7 moveto
65948.1 56042.5 lineto
65666.9 56042.5 lineto
65554.4 56098.7 lineto
65498.2 56211.2 lineto
65498.2 56323.7 lineto
65554.4 56436.2 lineto
65666.9 56492.4 lineto
65948.1 56492.4 lineto
66060.6 56548.7 lineto
stroke
newpath
66623 56829.9 moveto
66623 55648.8 lineto
stroke
newpath
66623 56773.6 moveto
66735.5 56829.9 lineto
66960.5 56829.9 lineto
67073 56773.6 lineto
67129.2 56717.4 lineto
67185.5 56604.9 lineto
67185.5 56267.5 lineto
67129.2 56155 lineto
67073 56098.7 lineto
66960.5 56042.5 lineto
66735.5 56042.5 lineto
66623 56098.7 lineto
stroke
newpath
67691.7 56155 moveto
67747.9 56098.7 lineto
67691.7 56042.5 lineto
67635.4 56098.7 lineto
67691.7 56155 lineto
67691.7 56042.5 lineto
stroke
newpath
67691.7 56773.6 moveto
67747.9 56717.4 lineto
67691.7 56661.2 lineto
67635.4 56717.4 lineto
67691.7 56773.6 lineto
67691.7 56661.2 lineto
stroke
showpage
grestore
%%EOF
